%YAML 1.1
%TAG !u! tag:unity3d.com,2011:
--- !u!114 &11400000
MonoBehaviour:
  m_ObjectHideFlags: 0
  m_CorrespondingSourceObject: {fileID: 0}
  m_PrefabInstance: {fileID: 0}
  m_PrefabAsset: {fileID: 0}
  m_GameObject: {fileID: 0}
  m_Enabled: 1
  m_EditorHideFlags: 0
  m_Script: {fileID: 11500000, guid: 7d356ced724c96b41a1322ece4397702, type: 3}
  m_Name: ChristmasSpriteDataSo
  m_EditorClassIdentifier: 
  gamePlayType: 1
  squareSpriteDatas:
  - colorType: 1
    sprite: {fileID: 21300000, guid: 4c040ae3e65eb204687ab6c7ce1cf617, type: 3}
  - colorType: 2
    sprite: {fileID: 21300000, guid: 7aaf0973739434b4c9a5a5dde2c984ea, type: 3}
  - colorType: 3
    sprite: {fileID: 21300000, guid: 542dd11f06945004abdf27df09198673, type: 3}
  - colorType: 4
    sprite: {fileID: 21300000, guid: f29b964f76039f1468770c6df17d3dba, type: 3}
  - colorType: 5
    sprite: {fileID: 21300000, guid: d12df976cedcd4e4c964b6f8ceb103b9, type: 3}
  - colorType: 6
    sprite: {fileID: 21300000, guid: 1ac1d3d1c01d0a149988f2e973b6a0ab, type: 3}
  - colorType: 8
    sprite: {fileID: 21300000, guid: 6ea656a07b2297c4198500c57bd3fc79, type: 3}
  - colorType: 9
    sprite: {fileID: 21300000, guid: c1bf10638b287a14ca944d257b70d888, type: 3}
  - colorType: 10
    sprite: {fileID: 21300000, guid: 6309287f16199e94f9fa517d375cde58, type: 3}
  - colorType: 11
    sprite: {fileID: 21300000, guid: ba0899ce5581ab94684b823a0c893ef7, type: 3}
  - colorType: 12
    sprite: {fileID: 21300000, guid: c8c2c4353159d374c98c01e70260b048, type: 3}
  - colorType: 27
    sprite: {fileID: 21300000, guid: 71a4e0c34eabcab4fa7c4cc56159d37c, type: 3}
