%YAML 1.1
%TAG !u! tag:unity3d.com,2011:
--- !u!114 &11400000
MonoBehaviour:
  m_ObjectHideFlags: 0
  m_CorrespondingSourceObject: {fileID: 0}
  m_PrefabInstance: {fileID: 0}
  m_PrefabAsset: {fileID: 0}
  m_GameObject: {fileID: 0}
  m_Enabled: 1
  m_EditorHideFlags: 0
  m_Script: {fileID: 11500000, guid: 7d356ced724c96b41a1322ece4397702, type: 3}
  m_Name: HaloweenSpriteDataSo
  m_EditorClassIdentifier: 
  gamePlayType: 0
  squareSpriteDatas:
  - colorType: 1
    sprite: {fileID: 21300000, guid: 98ff6beb7ea3b7b43a70eed83b705dbe, type: 3}
  - colorType: 2
    sprite: {fileID: 21300000, guid: 227aa45f0c6f7fb4aaeecc102d909b50, type: 3}
  - colorType: 3
    sprite: {fileID: 21300000, guid: a10417da727b1434690c781cd51accb7, type: 3}
  - colorType: 4
    sprite: {fileID: 21300000, guid: 90bce231806a2ae4bafd30abce1fe4ee, type: 3}
  - colorType: 5
    sprite: {fileID: 21300000, guid: c2c905307b5862348adf45681b82ba40, type: 3}
  - colorType: 6
    sprite: {fileID: 21300000, guid: 663d7ce8cb554a343a655567fb10a678, type: 3}
  - colorType: 8
    sprite: {fileID: 21300000, guid: 89e25bb6fa9c2634a8bc095efb4f0028, type: 3}
  - colorType: 9
    sprite: {fileID: 21300000, guid: 0018811bbedad764fb03416f0643e57d, type: 3}
  - colorType: 10
    sprite: {fileID: 21300000, guid: 067a198c99f4e8f41a12b881e5913bc5, type: 3}
  - colorType: 11
    sprite: {fileID: 21300000, guid: 44333951ffce40944a5d82ce3ddeb847, type: 3}
  - colorType: 12
    sprite: {fileID: 21300000, guid: 1b02dfe450aabee4a96b17a6f6242adc, type: 3}
  - colorType: 13
    sprite: {fileID: 21300000, guid: 2fb071dd2f891e14f8e523e042216cd7, type: 3}
  - colorType: 14
    sprite: {fileID: 21300000, guid: 89e25bb6fa9c2634a8bc095efb4f0028, type: 3}
  - colorType: 27
    sprite: {fileID: 21300000, guid: 71a4e0c34eabcab4fa7c4cc56159d37c, type: 3}
